{
  "data": {
    "items": [
      {
        "id": 1,
        "name": "bulbasaur1",
        "spriteUrl": "https://raw.githubusercontent.com/PokeAPI/sprites/master/sprites/pokemon/other/official-artwork/1.png",
        "types": [
          {
            "id": 1,
            "name": "t1"
          },
          {
            "id": 2,
            "name": "t2"
          }
        ]
      },
      {
        "id": 2,
        "name": "bulbasaur2",
        "spriteUrl": "https://raw.githubusercontent.com/PokeAPI/sprites/master/sprites/pokemon/other/official-artwork/2.png",
        "types": [
          {
            "id": 1,
            "name": "t1"
          },
          {
            "id": 2,
            "name": "t2"
          }
        ]
      }
    ],
    "count": 111,
    "page": 0,
    "pageSize": 20,
    "totalPages": 64
  },
  "error": null
}
